[
  {
    "created": 1708841381018,
    "fl": 700,
    "aperture": 103,
    "edited": 1708841381018,
    "subtype": "Apo",
    "type": "refractor",
    "manufacturer": "Askar",
    "model": "103 APO",
    "databaseId": "k4KPSKh63v3XQB7Im9Q4"
  },
  {
    "created": 1708841381852,
    "type": "refractor",
    "fl": 749,
    "manufacturer": "Askar",
    "subtype": "Apo",
    "edited": 1708841381852,
    "model": "107PHQ",
    "aperture": 107,
    "databaseId": "bIkZO5ZcEnCZFhKyIqYg"
  },
  {
    "type": "refractor",
    "edited": 1708841381970,
    "fl": 840,
    "subtype": "Apo",
    "model": "120 APO",
    "aperture": 120,
    "manufacturer": "Askar",
    "created": 1708841381970,
    "databaseId": "Bp2cM46LVWtqbkYysr5U"
  },
  {
    "type": "refractor",
    "manufacturer": "Askar",
    "subtype": "Apo",
    "created": 1708841381303,
    "edited": 1708841381303,
    "aperture": 130,
    "model": "130PHQ",
    "fl": 1000,
    "databaseId": "oQOdk2VC9GVfOPoXjf7N"
  },
  {
    "manufacturer": "Askar",
    "edited": 1708841381225,
    "created": 1708841381225,
    "type": "refractor",
    "subtype": "Apo",
    "model": "140 APO",
    "fl": 980,
    "visualBack": 2,
    "aperture": 140,
    "databaseId": "TGwysE2oQ9biZKonYGuB"
  },
  {
    "created": 1708841381417,
    "fl": 1057,
    "edited": 1708841381417,
    "subtype": "Apo",
    "manufacturer": "Askar",
    "type": "refractor",
    "model": "151PHQ",
    "aperture": 151,
    "databaseId": "3s1rbuZ6ULrsDWPfKVwf"
  },
  {
    "manufacturer": "Askar",
    "type": "refractor",
    "fl": 1295,
    "model": "185 APO",
    "visualBack": 2,
    "subtype": "Apo",
    "created": 1708841381364,
    "aperture": 180,
    "edited": 1708841381364,
    "databaseId": "xxNf1pkbf3z7kOxgDzjv"
  },
  {
    "aperture": 65,
    "manufacturer": "Askar",
    "edited": 1708841381911,
    "subtype": "Apo",
    "created": 1708841381911,
    "type": "refractor",
    "fl": 416,
    "model": "65PHQ",
    "databaseId": "dZDFg25pS2oqBTqCxK89"
  },
  {
    "model": "80PHQ",
    "created": 1708841380962,
    "type": "refractor",
    "manufacturer": "Askar",
    "fl": 600,
    "subtype": "Apo",
    "aperture": 80,
    "edited": 1708841380962,
    "databaseId": "xy8LV9uqtcOtOq8tdK9g"
  },
  {
    "type": "refractor",
    "subtype": "Apo",
    "manufacturer": "Askar",
    "model": "FMA135",
    "edited": 1708841381632,
    "fl": 135,
    "aperture": 30,
    "created": 1708841381632,
    "databaseId": "uXOzOtnS6O25XhRiN8ml"
  },
  {
    "edited": 1708841381138,
    "aperture": 40,
    "fl": 180,
    "subtype": "Apo",
    "manufacturer": "Askar",
    "type": "refractor",
    "model": "FMA180Pro",
    "created": 1708841381138,
    "databaseId": "9A4tLGwBexn8mNkqZO95"
  },
  {
    "fl": 275,
    "manufacturer": "Askar",
    "model": "FMA230",
    "created": 1708841381688,
    "type": "refractor",
    "aperture": 50,
    "edited": 1708841381688,
    "subtype": "Apo",
    "databaseId": "EhG8hH1h0qiHHujsN3fG"
  },
  {
    "subtype": "Petzval",
    "model": "FRA300",
    "manufacturer": "Askar",
    "created": 1708841381506,
    "aperture": 60,
    "type": "refractor",
    "edited": 1708841381506,
    "fl": 300,
    "databaseId": "7fXOpwwKUL0Q8jAoQmUZ"
  },
  {
    "created": 1708841380792,
    "type": "refractor",
    "aperture": 72,
    "manufacturer": "Askar",
    "fl": 400,
    "edited": 1708841380792,
    "subtype": "Petzval",
    "model": "FRA400",
    "databaseId": "BxOzA8sEByUswOdRkOfP"
  },
  {
    "type": "refractor",
    "manufacturer": "Askar",
    "subtype": "Petzval",
    "created": 1708841381797,
    "aperture": 90,
    "model": "FRA500",
    "fl": 500,
    "edited": 1708841381797,
    "databaseId": "QUOu5npbGbBR1dt8hPaX"
  },
  {
    "subtype": "Petzval",
    "type": "refractor",
    "manufacturer": "Askar",
    "created": 1708841381575,
    "edited": 1708841381575,
    "fl": 600,
    "model": "FRA600",
    "aperture": 108,
    "databaseId": "w2n22z1OygnVEGf2d68F"
  },
  {
    "manufacturer": "Askar",
    "type": "refractor",
    "created": 1708841380848,
    "fl": 360,
    "model": "V 60",
    "aperture": 60,
    "edited": 1708841380848,
    "subtype": "Apo",
    "databaseId": "slNQdu3MfgrAQqy3Hx9F"
  },
  {
    "fl": 500,
    "model": "V 80",
    "type": "refractor",
    "created": 1708841380906,
    "manufacturer": "Askar",
    "edited": 1708841380906,
    "aperture": 80,
    "subtype": "Apo",
    "databaseId": "c6KomqdKl7kYpNkdv5Zz"
  },
  {
    "model": "AT72EDII",
    "created": 1709118510089,
    "subtype": "",
    "fl": 420,
    "type": "refractor",
    "visualBack": 2,
    "manufacturer": "Astrotech",
    "aperture": 72,
    "edited": 1709195259758,
    "databaseId": "9q0XfKiBayvrPbUveLhr"
  },
  {
    "fl": 2800,
    "model": "C11-A",
    "manufacturer": "Celestron",
    "type": "catadioptric",
    "created": 1708841375199,
    "subtype": "SCT",
    "aperture": 279,
    "edited": 1708841375199,
    "databaseId": "o4ByQM85AsOvCEJj0Gvb"
  },
  {
    "aperture": 356,
    "created": 1708841375370,
    "model": "C14-A",
    "type": "catadioptric",
    "edited": 1708841375370,
    "manufacturer": "Celestron",
    "subtype": "SCT",
    "fl": 3910,
    "databaseId": "fQSaqhH3RqfyH5X2iYCf"
  },
  {
    "model": "C5",
    "created": 1708841375594,
    "subtype": "SCT",
    "aperture": 127,
    "fl": 1250,
    "edited": 1708841375594,
    "manufacturer": "Celestron",
    "type": "catadioptric",
    "databaseId": "chBJ8MBKEk6MNwJiT4w4"
  },
  {
    "fl": 2032,
    "model": "C8-A",
    "edited": 1708841375088,
    "subtype": "SCT",
    "created": 1708841375088,
    "type": "catadioptric",
    "aperture": 203,
    "manufacturer": "Celestron",
    "databaseId": "S6hnqYvkdHeezjei5lVj"
  },
  {
    "visualBack": 2,
    "manufacturer": "Celestron",
    "created": 1708841374863,
    "edited": 1708841374863,
    "model": "C9.25",
    "type": "catadioptric",
    "subtype": "SCT",
    "aperture": 235,
    "fl": 2350,
    "databaseId": "QkUZXxPMNdynHQFEN6te"
  },
  {
    "edited": 1708841375712,
    "subtype": "Maksutov",
    "fl": 1250,
    "created": 1708841375712,
    "model": "C90",
    "aperture": 90,
    "manufacturer": "Celestron",
    "type": "catadioptric",
    "databaseId": "rVE5Mh3NTXcEa9nyeoxB"
  },
  {
    "type": "catadioptric",
    "subtype": "Maksutov",
    "manufacturer": "Celestron",
    "model": "CGX 700",
    "edited": 1708841375538,
    "aperture": 180,
    "created": 1708841375538,
    "fl": 2700,
    "databaseId": "Gtc8obj9O775Zt9k99K3"
  },
  {
    "aperture": 279,
    "created": 1708841374731,
    "edited": 1708841374731,
    "fl": 620,
    "subtype": "RASA",
    "manufacturer": "Celestron",
    "type": "catadioptric",
    "model": "CGX-RASA 11",
    "databaseId": "IOXDeRIVH0DAc0ApiVly"
  },
  {
    "aperture": 279,
    "edited": 1708841375259,
    "subtype": "SCT",
    "model": "EdgeHD 1100",
    "fl": 2800,
    "created": 1708841375259,
    "manufacturer": "Celestron",
    "type": "catadioptric",
    "databaseId": "cmmM9gC0gLtR5dO0UtPI"
  },
  {
    "fl": 3910,
    "aperture": 356,
    "model": "EdgeHD 1400",
    "manufacturer": "Celestron",
    "type": "catadioptric",
    "edited": 1708841375482,
    "created": 1708841375482,
    "subtype": "SCT",
    "databaseId": "t2tiHx67HeZ4lVGY7OUg"
  },
  {
    "aperture": 203,
    "created": 1708841375146,
    "manufacturer": "Celestron",
    "subtype": "SCT",
    "fl": 2032,
    "edited": 1708841375146,
    "model": "EdgeHD 800",
    "type": "catadioptric",
    "databaseId": "hrlq7OOVxU3VSG0jMUFE"
  },
  {
    "fl": 2350,
    "created": 1708841374973,
    "model": "EdgeHD 925",
    "visualBack": 2,
    "aperture": 235,
    "subtype": "SCT",
    "manufacturer": "Celestron",
    "edited": 1708841374973,
    "type": "catadioptric",
    "databaseId": "9pnPudfdneBHnRDrwAie"
  },
  {
    "model": "TASA 8\"",
    "fl": 400,
    "manufacturer": "Celestron",
    "created": 1708841374615,
    "type": "catadioptric",
    "subtype": "RASA",
    "edited": 1708841374615,
    "aperture": 203,
    "databaseId": "bxfhGRNvtwGDpMMWjSdd"
  },
  {
    "edited": 1708841379590,
    "created": 1708841379590,
    "manufacturer": "Meade",
    "subtype": "ACF-Cassegrain",
    "aperture": 254,
    "model": "10\" LX200-ACF",
    "type": "catadioptric",
    "fl": 2500,
    "databaseId": "wMFVibXwfuoPBPbeQzqt"
  },
  {
    "aperture": 254,
    "subtype": "ACF-Cassegrain",
    "edited": 1708841379654,
    "model": "10\" LX850-ACF",
    "type": "catadioptric",
    "created": 1708841379654,
    "manufacturer": "Meade",
    "fl": 2032,
    "databaseId": "N89sd4wTTSuMrqsJgxou"
  },
  {
    "subtype": "ACF-Cassegrain",
    "aperture": 305,
    "visualBack": 1.25,
    "manufacturer": "Meade",
    "fl": 3048,
    "created": 1708841379274,
    "type": "catadioptric",
    "edited": 1708841379274,
    "model": "12\" LX200-ACF",
    "databaseId": "Qox3OUXMqQE4FdgJYPgT"
  },
  {
    "subtype": "ACF-Cassegrain",
    "model": "12\" LX850-ACF",
    "type": "catadioptric",
    "edited": 1708841379538,
    "aperture": 305,
    "manufacturer": "Meade",
    "created": 1708841379538,
    "fl": 2438,
    "databaseId": "NCaaaHuqHX8sY765301f"
  },
  {
    "subtype": "ACF-Cassegrain",
    "edited": 1708841379418,
    "model": "14\" LX200-ACF",
    "created": 1708841379418,
    "fl": 3556,
    "aperture": 356,
    "type": "catadioptric",
    "visualBack": 1.25,
    "manufacturer": "Meade",
    "databaseId": "w5cbBpT804qoh45Wfmcg"
  },
  {
    "type": "catadioptric",
    "model": "14\" LX850-ACF",
    "aperture": 356,
    "fl": 2845,
    "manufacturer": "Meade",
    "edited": 1708841379478,
    "subtype": "ACF-Cassegrain",
    "created": 1708841379478,
    "databaseId": "kiEWMMK2Q335WpFlPuob"
  },
  {
    "fl": 4064,
    "edited": 1708841379104,
    "aperture": 406,
    "model": "16\" LX200-ACF",
    "type": "catadioptric",
    "subtype": "ACF-Cassegrain",
    "manufacturer": "Meade",
    "created": 1708841379104,
    "visualBack": 2,
    "databaseId": "8Y3qm9onqEJfMADg6S0h"
  },
  {
    "manufacturer": "Meade",
    "aperture": 406,
    "created": 1708841379161,
    "edited": 1708841379161,
    "type": "catadioptric",
    "visualBack": 2,
    "fl": 3251,
    "subtype": "ACF-Cassegrain",
    "model": "16\" LX600-ACF",
    "databaseId": "fKVKqWABwKMQQnJPp6ys"
  },
  {
    "type": "catadioptric",
    "manufacturer": "Meade",
    "subtype": "ACF-Cassegrain",
    "created": 1708841379772,
    "aperture": 203,
    "model": "8\" LX200-ACF",
    "edited": 1708841379772,
    "fl": 2032,
    "databaseId": "CDVIQsbvvvoEyYN0BxXV"
  },
  {
    "type": "catadioptric",
    "subtype": "Maksutov",
    "created": 1708841379883,
    "manufacturer": "Meade",
    "fl": 1900,
    "edited": 1708841379883,
    "visualBack": 1.25,
    "aperture": 127,
    "model": "ETX125 AT",
    "databaseId": "MvgDLR8Xuy2wNZEjWWA7"
  },
  {
    "type": "catadioptric",
    "visualBack": 1.25,
    "manufacturer": "Meade",
    "subtype": "Maksutov",
    "aperture": 90,
    "created": 1708841379826,
    "fl": 1250,
    "model": "ETX90 AT",
    "edited": 1708841379826,
    "databaseId": "f4NheBjFQU2WNtVogYID"
  },
  {
    "edited": 1708841379939,
    "visualBack": 1.25,
    "model": "6\" LX85",
    "created": 1708841379939,
    "aperture": 150,
    "type": "reflector",
    "subtype": "Newtonian",
    "manufacturer": "Meade",
    "fl": 610,
    "databaseId": "bq1d3uZJCzTl9fKGkq8Q"
  },
  {
    "fl": 800,
    "model": "8\" LX85",
    "edited": 1708841380000,
    "aperture": 200,
    "type": "reflector",
    "created": 1708841380000,
    "manufacturer": "Meade",
    "subtype": "Newtonian",
    "visualBack": 2,
    "databaseId": "OvnjeoOUS5OLT7ulaW9I"
  },
  {
    "visualBack": 1.25,
    "created": 1708841380054,
    "edited": 1708841380054,
    "type": "reflector",
    "manufacturer": "Meade",
    "fl": 1000,
    "aperture": 114,
    "subtype": "Newtonian",
    "model": "Polaris 114mm",
    "databaseId": "ac8I7IFJx36sNINRFmn9"
  },
  {
    "model": "Polaris 127mm",
    "subtype": "Newtonian",
    "created": 1708841380113,
    "fl": 1000,
    "manufacturer": "Meade",
    "visualBack": 1.25,
    "type": "reflector",
    "aperture": 127,
    "edited": 1708841380113,
    "databaseId": "hLlQtnFZkNSYjFM58ezp"
  },
  {
    "model": "SCA260",
    "subtype": "Aspherical Cassegrain",
    "manufacturer": "Sharpstar",
    "type": "catadioptric",
    "created": 1708841380457,
    "fl": 1300,
    "edited": 1708841380457,
    "aperture": 260,
    "databaseId": "CU11VPRBq0AdPbT71OU7"
  },
  {
    "edited": 1708841380570,
    "type": "reflector",
    "fl": 364,
    "aperture": 130,
    "created": 1708841380570,
    "model": "13028HNT-Red",
    "manufacturer": "Sharpstar",
    "subtype": "hyperbolic Newtonian",
    "databaseId": "qJhcwC0ZxL0uolFyoaer"
  },
  {
    "aperture": 150,
    "created": 1708841380515,
    "subtype": "hyperbolic Newtonian",
    "edited": 1708841380515,
    "fl": 420,
    "model": "15028HNT-RD",
    "type": "reflector",
    "manufacturer": "Sharpstar",
    "databaseId": "HqoXKX5nJskxAy14iYtQ"
  },
  {
    "model": "50EDPH",
    "fl": 275,
    "manufacturer": "Sharpstar",
    "created": 1708841380737,
    "type": "refractor",
    "subtype": "Apo",
    "aperture": 50,
    "edited": 1708841380737,
    "databaseId": "h5w1NpySr4RsDVx2H4LB"
  },
  {
    "aperture": 61,
    "type": "refractor",
    "manufacturer": "Sharpstar",
    "subtype": "Apo",
    "model": "61EDPHIII",
    "fl": 360,
    "created": 1708841380681,
    "edited": 1708841380681,
    "databaseId": "pF7hDsY9H1WJEX46zfBj"
  },
  {
    "manufacturer": "Sharpstar",
    "model": "76EDPH",
    "edited": 1708841380237,
    "fl": 418,
    "aperture": 76,
    "created": 1708841380237,
    "subtype": "Apo",
    "type": "refractor",
    "databaseId": "T41DYku5LQI2g0FFqUq7"
  },
  {
    "subtype": "Apo",
    "fl": 517,
    "edited": 1708841380400,
    "visualBack": 2,
    "type": "refractor",
    "created": 1708841380400,
    "aperture": 94,
    "manufacturer": "Sharpstar",
    "model": "94EDPH",
    "databaseId": "t01qmf6BGh7N2e6pTX0b"
  },
  {
    "manufacturer": "Sharpstar",
    "created": 1708841380290,
    "visualBack": 2,
    "type": "refractor",
    "subtype": "Apo",
    "fl": 910,
    "model": "AL-140PH",
    "aperture": 140,
    "edited": 1708841380290,
    "databaseId": "wOoGPZNaBTsnBC09g1a5"
  },
  {
    "manufacturer": "Sharpstar",
    "fl": 550,
    "aperture": 100,
    "model": "Z4",
    "created": 1708841380624,
    "edited": 1708841380624,
    "subtype": "Apo",
    "type": "refractor",
    "databaseId": "RWnASin0unS05phV6voe"
  },
  {
    "subtype": "Maksutov",
    "type": "catadioptric",
    "manufacturer": "SkyWatcher",
    "fl": 1500,
    "aperture": 127,
    "created": 1708841378880,
    "edited": 1708841378880,
    "model": "SKYMAX127",
    "databaseId": "NZuzumQUMQMiuAiNnsrd"
  },
  {
    "type": "catadioptric",
    "fl": 1800,
    "created": 1708841378668,
    "edited": 1708841378668,
    "model": "SKYMAX150",
    "aperture": 150,
    "manufacturer": "SkyWatcher",
    "subtype": "Maksutov",
    "databaseId": "wxA78Z5WCNlBRqNVGUay"
  },
  {
    "fl": 2700,
    "edited": 1708841379048,
    "visualBack": 2,
    "subtype": "Maksutov",
    "aperture": 180,
    "model": "SKYMAX180",
    "manufacturer": "SkyWatcher",
    "type": "catadioptric",
    "created": 1708841379048,
    "databaseId": "RfPx1mcdxJrwy1GroCMX"
  },
  {
    "created": 1708841377321,
    "manufacturer": "SkyWatcher",
    "fl": 1250,
    "edited": 1708841377321,
    "type": "catadioptric",
    "aperture": 90,
    "subtype": "Maksutov",
    "model": "SKYMAX90G",
    "databaseId": "7hF00C60oRnnLDK4Xn6b"
  },
  {
    "manufacturer": "SkyWatcher",
    "fl": 650,
    "model": "130PDS",
    "edited": 1708841378804,
    "subtype": "Newtonian",
    "created": 1708841378804,
    "aperture": 130,
    "type": "reflector",
    "databaseId": "9GPoKZBdpBHqwP90DSWc"
  },
  {
    "created": 1708841378374,
    "edited": 1708841378374,
    "manufacturer": "SkyWatcher",
    "type": "reflector",
    "subtype": "Newtonian",
    "aperture": 150,
    "fl": 750,
    "model": "150PDS",
    "databaseId": "ngWNXVURIxz3iHun7TFo"
  },
  {
    "manufacturer": "SkyWatcher",
    "aperture": 200,
    "subtype": "Newtonian",
    "type": "reflector",
    "fl": 1000,
    "created": 1708841377191,
    "model": "200PDS",
    "edited": 1708841377191,
    "databaseId": "bFf2QOXwO20MeX4Bk55F"
  },
  {
    "model": "300PDS",
    "visualBack": 2,
    "type": "reflector",
    "aperture": 300,
    "fl": 1500,
    "created": 1708841378992,
    "edited": 1708841378992,
    "manufacturer": "SkyWatcher",
    "subtype": "Newtonian",
    "databaseId": "JE6gZpFnr7owYwkWyHSS"
  },
  {
    "fl": 1200,
    "manufacturer": "SkyWatcher",
    "model": "Quattro 300P",
    "created": 1708841377138,
    "edited": 1708841377138,
    "type": "reflector",
    "aperture": 300,
    "databaseId": "6PByWJhqAGLHMn70DniJ"
  },
  {
    "edited": 1708841376969,
    "aperture": 150,
    "type": "reflector",
    "model": "Quattro150P",
    "manufacturer": "SkyWatcher",
    "fl": 600,
    "created": 1708841376969,
    "databaseId": "7SRQB1hhcP9OVT0H0HMX"
  },
  {
    "type": "reflector",
    "aperture": 200,
    "fl": 800,
    "manufacturer": "SkyWatcher",
    "created": 1708841378551,
    "model": "QUATTRO200P",
    "edited": 1708841378551,
    "databaseId": "GZza3nG9mERtGoJ8azbr"
  },
  {
    "edited": 1708841378204,
    "created": 1708841378204,
    "type": "reflector",
    "manufacturer": "SkyWatcher",
    "model": "QUATTRO200P-LPF",
    "fl": 800,
    "aperture": 200,
    "databaseId": "XNs4hySmvxIcDWUMYmKF"
  },
  {
    "created": 1708841378496,
    "aperture": 250,
    "edited": 1708841378496,
    "fl": 1000,
    "manufacturer": "SkyWatcher",
    "model": "QUATTRO250P",
    "type": "reflector",
    "databaseId": "4RNTtNRyshSNYPWlMhz2"
  },
  {
    "manufacturer": "SkyWatcher",
    "model": "ESPRIT100ED",
    "created": 1708841377552,
    "aperture": 100,
    "fl": 550,
    "subtype": "Apo",
    "type": "refractor",
    "edited": 1708841377552,
    "databaseId": "PfuCzwR4oT4fn8riQUEq"
  },
  {
    "edited": 1708841377675,
    "fl": 840,
    "manufacturer": "SkyWatcher",
    "aperture": 120,
    "created": 1708841377675,
    "type": "refractor",
    "model": "ESPRIT120ED",
    "subtype": "Apo",
    "databaseId": "wLy536Av5UzOnWj7MYtM"
  },
  {
    "type": "refractor",
    "created": 1708841377737,
    "aperture": 150,
    "model": "ESPRIT150ED",
    "subtype": "Apo",
    "fl": 1050,
    "edited": 1708841377737,
    "manufacturer": "SkyWatcher",
    "databaseId": "CRnU49IEt6sjJt1I5MQW"
  },
  {
    "edited": 1708841377436,
    "manufacturer": "SkyWatcher",
    "subtype": "Apo",
    "created": 1708841377436,
    "type": "refractor",
    "model": "ESPRIT80ED",
    "aperture": 80,
    "fl": 400,
    "databaseId": "6X1lF2ItmnOrRrAsVm0S"
  },
  {
    "created": 1708841377084,
    "model": "EVOLUX62ED",
    "type": "refractor",
    "fl": 400,
    "subtype": "Apo",
    "edited": 1708841377084,
    "manufacturer": "SkyWatcher",
    "aperture": 62,
    "databaseId": "YlK54nbzoDyvsXzNaT2C"
  },
  {
    "fl": 530,
    "created": 1708841377023,
    "model": "EVOLUX82ED",
    "subtype": "Apo",
    "aperture": 82,
    "type": "refractor",
    "manufacturer": "SkyWatcher",
    "edited": 1708841377023,
    "databaseId": "mj2n1Nz3V17gVoltZfwT"
  },
  {
    "manufacturer": "SkyWatcher",
    "fl": 900,
    "model": "EVOSTAR120ED",
    "type": "refractor",
    "aperture": 120,
    "created": 1708841378028,
    "edited": 1708841378028,
    "databaseId": "vhS3kjTHGe7fFWqi89k3"
  },
  {
    "created": 1708841378937,
    "visualBack": 2,
    "aperture": 150,
    "edited": 1708841378937,
    "manufacturer": "SkyWatcher",
    "type": "refractor",
    "model": "EVOSTAR150",
    "fl": 1200,
    "databaseId": "chi04qpVNdmviyy0KPlS"
  },
  {
    "type": "refractor",
    "manufacturer": "SkyWatcher",
    "model": "EVOSTAR150ED-DX",
    "created": 1708841377966,
    "aperture": 150,
    "fl": 1200,
    "edited": 1708841377966,
    "databaseId": "1xyBskfQ5xjxTAe5miTB"
  },
  {
    "fl": 420,
    "edited": 1708841377793,
    "model": "EVOSTAR72EDII",
    "manufacturer": "SkyWatcher",
    "aperture": 72,
    "created": 1708841377793,
    "type": "refractor",
    "databaseId": "9qSWPuB50hTTLRqBbm8U"
  },
  {
    "fl": 600,
    "model": "EVOSTAR80ED",
    "aperture": 80,
    "type": "refractor",
    "edited": 1708841378260,
    "manufacturer": "SkyWatcher",
    "created": 1708841378260,
    "databaseId": "CZEiFxERTCGs9Ya1JAhC"
  },
  {
    "fl": 400,
    "aperture": 80,
    "created": 1708841377909,
    "model": "STARQUEST 80",
    "manufacturer": "SkyWatcher",
    "type": "refractor",
    "edited": 1708841377909,
    "databaseId": "cjH6Gaqj4fs7QZCXksTl"
  },
  {
    "fl": 750,
    "model": "STARTRAVEL150",
    "manufacturer": "SkyWatcher",
    "edited": 1708841378083,
    "type": "refractor",
    "aperture": 150,
    "created": 1708841378083,
    "databaseId": "CjGK7coTlvxb641w1kQN"
  },
  {
    "manufacturer": "Takahashi",
    "fl": 5600,
    "aperture": 400,
    "type": "catadioptric",
    "edited": 1708841374042,
    "created": 1708841374042,
    "subtype": "Classical Cassegrain",
    "model": "C-400",
    "databaseId": "dWEdVO72JgwgHq3cf9fL"
  },
  {
    "fl": 1250,
    "edited": 1708841373872,
    "manufacturer": "Takahashi",
    "subtype": "Corrected Cassegrain Astrograph",
    "model": "CCA-250",
    "type": "catadioptric",
    "created": 1708841373872,
    "aperture": 250,
    "databaseId": "GX9WewiRen1iv4rervbU"
  },
  {
    "aperture": 130,
    "type": "catadioptric",
    "manufacturer": "Takahashi",
    "fl": 430,
    "subtype": "Hyperboloid Flat-Field Astrograph",
    "edited": 1708841373527,
    "created": 1708841373527,
    "model": "ε-130D",
    "databaseId": "Mbeye7UZLh2owS85G3PK"
  },
  {
    "fl": 530,
    "created": 1708841373639,
    "type": "catadioptric",
    "aperture": 160,
    "model": "ε-160ED",
    "manufacturer": "Takahashi",
    "edited": 1708841373639,
    "subtype": "Hyperboloid Flat-Field Astrograph",
    "databaseId": "JT5ZZB8LNkmuYoInI36m"
  },
  {
    "subtype": "Hyperboloid Flat-Field Astrograph",
    "aperture": 180,
    "manufacturer": "Takahashi",
    "fl": 500,
    "model": "ε-180ED",
    "edited": 1708841373756,
    "type": "catadioptric",
    "created": 1708841373756,
    "databaseId": "awV2FG2U4xNRfT96PtfS"
  },
  {
    "aperture": 180,
    "edited": 1708841373163,
    "manufacturer": "Takahashi",
    "fl": 2160,
    "model": "Mewlon-180C",
    "subtype": "Dall-Kirkham",
    "type": "reflector",
    "created": 1708841373163,
    "databaseId": "I3K52plMW6z2D5yw2y0y"
  },
  {
    "type": "reflector",
    "fl": 2415,
    "aperture": 210,
    "model": "Mewlon-210",
    "created": 1708841373220,
    "edited": 1708841373220,
    "subtype": "Dall-Kirkham",
    "manufacturer": "Takahashi",
    "databaseId": "o5p2nozdEgcgxYqAAPDV"
  },
  {
    "fl": 2500,
    "edited": 1708841373281,
    "model": "Mewlon-250CRS",
    "aperture": 250,
    "manufacturer": "Takahashi",
    "subtype": "Corrected Dall-Kirkham",
    "created": 1708841373281,
    "type": "reflector",
    "databaseId": "nuwDXnOwNY5QuJRbRMYN"
  },
  {
    "aperture": 300,
    "model": "Mewlon-300CRS",
    "manufacturer": "Takahashi",
    "edited": 1708841373410,
    "created": 1708841373410,
    "fl": 2960,
    "subtype": "Corrected Dall-Kirkham",
    "type": "reflector",
    "databaseId": "0MNfeKWzml7Ml4jS23t3"
  },
  {
    "manufacturer": "Takahashi",
    "type": "refractor",
    "aperture": 100,
    "model": "FC-100D",
    "fl": 740,
    "edited": 1708841371846,
    "created": 1708841371846,
    "databaseId": "vqkJs7JCAVPYbalFRqDC"
  },
  {
    "manufacturer": "Takahashi",
    "created": 1708841371723,
    "model": "FC-100DZ",
    "aperture": 100,
    "type": "refractor",
    "fl": 800,
    "edited": 1708841371723,
    "databaseId": "GnhjgcjbVmUUpH2bi7R9"
  },
  {
    "aperture": 76,
    "fl": 570,
    "created": 1708841371589,
    "type": "refractor",
    "edited": 1708841371589,
    "model": "FC-76D",
    "manufacturer": "Takahashi",
    "databaseId": "KemNKpUS2HFsXiMgR90K"
  },
  {
    "aperture": 76,
    "model": "FC-76DCU",
    "type": "refractor",
    "created": 1708841371284,
    "fl": 570,
    "edited": 1708841371284,
    "manufacturer": "Takahashi",
    "databaseId": "nsdV2uSVwbAFsVF5j0oy"
  },
  {
    "aperture": 200,
    "edited": 1708841373925,
    "manufacturer": "Takahashi",
    "created": 1708841373925,
    "model": "FET-200",
    "type": "refractor",
    "fl": 2000,
    "databaseId": "SGzYshhBR7dmS3GhUCWr"
  },
  {
    "type": "refractor",
    "edited": 1708841372910,
    "aperture": 60,
    "model": "FOA-60",
    "manufacturer": "Takahashi",
    "fl": 530,
    "created": 1708841372910,
    "databaseId": "C1fu7z6rxnN0CDT1kIoQ"
  },
  {
    "created": 1708841373043,
    "edited": 1708841373043,
    "aperture": 60,
    "fl": 900,
    "manufacturer": "Takahashi",
    "type": "refractor",
    "model": "FOA-60Q",
    "databaseId": "1c6vNJocNddeHQDDiPeF"
  },
  {
    "aperture": 60,
    "manufacturer": "Takahashi",
    "type": "refractor",
    "created": 1708841372011,
    "edited": 1708841372011,
    "fl": 355,
    "model": "FS-60CB",
    "databaseId": "wB4q93jFUJAtas8vaWXf"
  },
  {
    "type": "refractor",
    "model": "FS-60Q",
    "fl": 600,
    "aperture": 60,
    "created": 1708841372129,
    "manufacturer": "Takahashi",
    "edited": 1708841372129,
    "databaseId": "B9L5o1qRVFS3BkuNn8NV"
  },
  {
    "manufacturer": "Takahashi",
    "type": "refractor",
    "aperture": 106,
    "created": 1708841372794,
    "edited": 1708841372794,
    "fl": 530,
    "model": "FSQ-106EDP",
    "databaseId": "WynNEoZw0fyBhU0G3R9t"
  },
  {
    "fl": 450,
    "edited": 1708841372598,
    "manufacturer": "Takahashi",
    "model": "FSQ-85EDP",
    "type": "refractor",
    "created": 1708841372598,
    "aperture": 85,
    "databaseId": "yrqkK76JQiAEQBLFOnCh"
  },
  {
    "model": "TOA-130N",
    "created": 1708841372190,
    "aperture": 130,
    "fl": 1000,
    "type": "refractor",
    "manufacturer": "Takahashi",
    "edited": 1708841372190,
    "databaseId": "0MPJNvj24CwWvyUkD2rX"
  },
  {
    "aperture": 150,
    "manufacturer": "Takahashi",
    "model": "TOA-150B",
    "edited": 1708841372313,
    "fl": 1100,
    "created": 1708841372313,
    "type": "refractor",
    "databaseId": "61Cn0ml0s5JXIIdQlwBh"
  },
  {
    "aperture": 120,
    "type": "refractor",
    "fl": 900,
    "model": "TSA-120",
    "manufacturer": "Takahashi",
    "created": 1708841372432,
    "edited": 1708841372432,
    "databaseId": "tZPGkjrDE3fdsuWLvANE"
  },
  {
    "aperture": 101,
    "visualBack": 2,
    "fl": 540,
    "type": "refractor",
    "model": "Tele Vue NP-101",
    "created": 1708841374449,
    "manufacturer": "Tele Vue",
    "edited": 1708841374449,
    "databaseId": "sN7nlCYfQL1yACGrQ2mL"
  },
  {
    "visualBack": 2,
    "created": 1708841374503,
    "edited": 1708841374503,
    "model": "Tele Vue NP-127",
    "fl": 660,
    "aperture": 127,
    "manufacturer": "Tele Vue",
    "type": "refractor",
    "databaseId": "j4FGzWqyuCmuhyrzSyEh"
  },
  {
    "type": "refractor",
    "fl": 360,
    "visualBack": 1.25,
    "model": "Tele Vue-60",
    "aperture": 60,
    "edited": 1708841374100,
    "created": 1708841374100,
    "manufacturer": "Tele Vue",
    "databaseId": "D6kCMLag1mFpNyNKyqL5"
  },
  {
    "manufacturer": "Tele Vue",
    "edited": 1708841374218,
    "model": "Tele Vue-76",
    "created": 1708841374219,
    "fl": 480,
    "aperture": 76,
    "visualBack": 2,
    "type": "refractor",
    "databaseId": "8ABJvOVqB0PA5zByLrDy"
  },
  {
    "visualBack": 2,
    "manufacturer": "Tele Vue",
    "type": "refractor",
    "fl": 600,
    "edited": 1708841374335,
    "model": "Tele Vue-85",
    "created": 1708841374335,
    "aperture": 85,
    "databaseId": "f0I1928lE2UzuduyksQw"
  },
  {
    "fl": 1950,
    "subtype": "Cassegrain",
    "edited": 1708841376789,
    "created": 1708841376789,
    "aperture": 200,
    "manufacturer": "Vixen",
    "model": "VMC200L",
    "type": "catadioptric",
    "databaseId": "ZO6P4fVG0blXl2VSb9IY"
  },
  {
    "manufacturer": "Vixen",
    "edited": 1708841376140,
    "type": "catadioptric",
    "fl": 3000,
    "created": 1708841376140,
    "aperture": 260,
    "model": "VMC260L",
    "databaseId": "Y5j51NpmWgzTVGV1TLWb"
  },
  {
    "fl": 800,
    "manufacturer": "Vixen",
    "edited": 1708841376849,
    "subtype": "Newtonian",
    "created": 1708841376849,
    "type": "reflector",
    "aperture": 200,
    "model": "R200SS",
    "databaseId": "PVFQ3c0aiAbQJGgmZ6VV"
  },
  {
    "manufacturer": "Vixen",
    "created": 1708841376437,
    "type": "refractor",
    "fl": 1000,
    "aperture": 105,
    "edited": 1708841376437,
    "model": "A105MII",
    "databaseId": "TV3GMajy4bGbFQ5ta09i"
  },
  {
    "fl": 910,
    "aperture": 81,
    "type": "refractor",
    "model": "A81M",
    "created": 1708841376550,
    "edited": 1708841376550,
    "manufacturer": "Vixen",
    "databaseId": "KKnnLlHcfnyefb6qSzig"
  },
  {
    "aperture": 103,
    "edited": 1708841376667,
    "model": "AX103S",
    "created": 1708841376667,
    "fl": 825,
    "manufacturer": "Vixen",
    "type": "refractor",
    "databaseId": "s2BvPfBYQbRciBr4zcjR"
  },
  {
    "created": 1708841376904,
    "edited": 1708841376904,
    "aperture": 80,
    "fl": 600,
    "model": "ED80Sf",
    "type": "refractor",
    "manufacturer": "Vixen",
    "databaseId": "yo936cHE3hasfMc9ei8I"
  },
  {
    "manufacturer": "Vixen",
    "edited": 1708841376200,
    "model": "FL55SS",
    "aperture": 55,
    "type": "refractor",
    "created": 1708841376200,
    "fl": 303,
    "databaseId": "iwaVeuxwp3B1IyLHQwuq"
  },
  {
    "manufacturer": "Vixen",
    "aperture": 103,
    "fl": 795,
    "created": 1708841376313,
    "model": "SD103S",
    "type": "refractor",
    "edited": 1708841376313,
    "databaseId": "rQnucaIMBFcCFf2OJXO3"
  },
  {
    "aperture": 103,
    "fl": 795,
    "model": "SD103SII",
    "manufacturer": "Vixen",
    "created": 1708841375889,
    "type": "refractor",
    "edited": 1708841375889,
    "databaseId": "iTyCYXqoNQfAbOpUNkXC"
  },
  {
    "aperture": 115,
    "manufacturer": "Vixen",
    "created": 1708841376258,
    "type": "refractor",
    "model": "SD115S",
    "edited": 1708841376258,
    "fl": 890,
    "databaseId": "7WLFmfVOVhKOex11jbKh"
  },
  {
    "model": "SD115SII",
    "manufacturer": "Vixen",
    "edited": 1708841375773,
    "fl": 890,
    "created": 1708841375773,
    "type": "refractor",
    "aperture": 115,
    "databaseId": "sdT7F3RGDkGcG9rorGdz"
  },
  {
    "fl": 625,
    "manufacturer": "Vixen",
    "type": "refractor",
    "model": "SD81S",
    "edited": 1708841376079,
    "created": 1708841376079,
    "aperture": 81,
    "databaseId": "9kYtxXioFoZ0JSxoT1hL"
  },
  {
    "type": "refractor",
    "fl": 495,
    "aperture": 90,
    "manufacturer": "Vixen",
    "model": "VSD90SS",
    "created": 1708841375945,
    "edited": 1708841375945,
    "databaseId": "DXOxBtyxmi2xYipMa35x"
  }
]